{
   "project-global-credits": {
      "technic-and-scripting": [
         "David Revoy <https://framagit.org/Deevad>",
         "Mjtalkiewicz (aka Player_2)",
         "CalimeroTeknik <https://framagit.org/calimeroteknik>",
         "Jookia <https://framagit.org/Jookia>",
         "Gleki Arxokuna <https://framagit.org/lagleki>",
         "Quetzal2 <https://framagit.org/Quetzal2>",
         "Xhire <https://framagit.org/xHire>",
         "Sabrina <https://framagit.org/imsesaok>",
         "Nicolas Artance <https://framagit.org/Nartance>",
         "Valvin <https://framagit.org/valvin>",
         "Craig Maloney  <https://framagit.org/craigmaloney>",
         "GunChleoc <https://framagit.org/gunchleoc>",
         "Christian Aribaud <https://christian.aribaud.net/>",
         "Karl Ove Hufthammer <https://framagit.org/huftis>"
      ],
      "svg-database": [
         "David Revoy <https://framagit.org/Deevad>",
         "CalimeroTeknik <https://framagit.org/calimeroteknik>",
         "Midgard <https://framagit.org/Midgard>",
         "3dnett <https://framagit.org/3dnett>",
         "Karl Ove Hufthammer <https://framagit.org/huftis>",
         "Marc \"Mc\" Jeanmougin <https://gitlab.com/marcjeanmougin>",
         "Châu <https://framagit.org/Navi>",
         "GunChleoc <https://framagit.org/gunchleoc>",
         "Andrej Ficko <https://framagit.org/fici>"
      ],
      "website-code": [
         "David Revoy <https://framagit.org/Deevad>",
         "Jookia <https://framagit.org/Jookia>",
         "Giovanni Alfredo Garciliano Díaz <https://framagit.org/rapunzel>",
         "GunChleoc <https://framagit.org/gunchleoc>",
         "Riedler <https://framagit.org/RiedleroD>",
         "Valvin <https://framagit.org/valvin>",
         "Andrej Ficko <https://framagit.org/fici>"
      ],
      "bug-fix-heroes": [
         "Halla Rempt (Krita) <halla@valdyas.org>",
         "Dmitry Kazakov (Krita) <dimula73@gmail.com>",
         "Wolthera van Hövell tot Westerflier (Krita) <griffinvalley@gmail.com>",
         "Tavmjong Bah (Inkscape) <https://gitlab.com/Tavmjong>",
         "Marc Jeanmougin (Inkscape) <https://gitlab.com/marcjeanmougin>",
         "Martin Owens (Inkscape) <https://gitlab.com/doctormo>",
         "David Tschumperlé (Gmic) <https://gmic.eu/>",
         "Jean Ghali (Scribus) <https://www.scribus.net>",
         "A.l.e (Scribus) <https://www.scribus.net>"
      ]
   }
}
