<?xml version="1.0" encoding="UTF-8"?><svg width="560" height="120" version="1.1" xmlns="http://www.w3.org/2000/svg"><g transform="matrix(.2439 0 0 .3004 -25.459 -44.918)">
  <path d="m1370.5 345.16c-4.4355-0.10425-6.0971 3.0552-9.0235 7.42-2.7388 4.0844-10.56 21.299-20.439 38.432 1.9536 3.9005-2.4013 7.7708-6.4144 10.573-4.9731 7.7536-10.263 14.879-15.546 20.031-4.7497 4.6305-12.761 8.5385-12.285 3.642 0.7506-7.7245 1.4744-19.129 1.7667-39.627-5.2367 1.3318-3.2077-2.1388 0.054-5.8436 0.044-4.5817 0.082-9.4383 0.082-14.894 0-7.4828-1.6866-17.313-6.6046-17.313-11.401 0-17.945 1.1438-37.045 9.9476-5.2024 2.3978-1.7915 3.0517 2.2559 2.0113 8.0003-2.0568 15.779-1.2496 15.791 2.5005 0.1405 45.512-5.898 73.893-5.898 88.795 0 10.261 8.4527 14.579 14.541 14.568 10.108-0.0199 21.606-9.3999 30.414-18.509-0.016-2.9701 0.094-5.9154 0.3805-8.7789 2.6578 1.413 3.4362 2.3117 4.2943 3.7508 25.93-29.331 36.101-56.135 37.508-57.919 3.4147-4.3328 3.5374-1.9756 3.805 5.6805 0.7311 20.915-0.434 36.479-2.8266 58.435-1.275 11.7-4.7569 24.292-7.1754 28.837-1.253 2.3548 2.8911 2.179 7.719-4.9738 2.5595-0.0957 4.2046-4.1238 7.3656-4.403 1.7327-0.15306 4.1112-1.9462 5.9794-6.0338 3.6203 0.40522 6.2565-8.1034 7.4199-14.867 0.6885-4.002 1.2795-8.3504 1.7938-12.883-5.7775 1.0584-5.9175-3.6446 0.7883-7.6917 2.7028-29.613 2.4733-63.467 2.4733-63.98 0-9.5861-14.85-16.757-21.173-16.906z"/>
  <path d="m225.88 221.19c-26.254-0.0865-57.424 7.4704-78.275 14.133-5.8787 1.8783-9.7727 6.3621-9.4043 10.49 2.0878 23.393 2.1618 46.444 1.2227 67.514 2.6316 5.4778 2.9186 8.7974-0.81446 14.379-1.8697 27.622-5.2133 50.769-7.4199 65.039-0.81527 5.2724-6.1109 5.1081-11.498 4.9473-5.1492-0.15261-14.691 2.0121-15.111 8.8594-0.47364 7.7117 5.3736 22.043 19.516 22.043 2.7004 0 5.5753-0.51564 8.4785-1.4394-2.7108-11.248 3.8906-9.2046 12.449-6.4961 8.6439-6.3728 15.588-15.916 16.361-26.201 0.33279-4.424 0.63836-8.8654 0.92383-13.318-4.5642-1.2545-7.4332-2.8206-6.3047-4.8652 0.87276-1.5812 2.24-2.2115 6.6856-1.25 2.3988-40.506 2.8188-80.47 1.0606-103.23-0.27708-3.5862 0.30364-6.4089 3.8867-8.0449 7.5395-3.4426 15.426-7.016 23.293-9.9746 3.7e-4 -3.604 0.92467-5.5052 3.125-8.0723 1.8111 2.0617 2.4558 3.9235 2.8809 5.9238 13.012-4.2935 25.721-6.289 36.475-2.418 3.1704 1.1412 3.0768 4.3523 3.3711 8.3711 0.70026 9.5618 1.1243 20.465 1.3027 32.152 7.3048 0.7747 3.6724 9.6527 1.8496 13.754-0.66448-0.47664-1.2526-0.97893-1.7676-1.4688 0.0256 30.736-1.4722 65.363-4.1582 95.346-1.8494 0.71223-6.682 3.282-7.3926 6.3594-2.6596 11.517-0.6117 17.231 4.2402 19.65 7.1995 0.59297 23.804 1.4286 28.211-4.8906 6.4692-1.9779 20.38-2.8013 18.836-8.1816 8.9693-3.5125 16.399-5.3441 19.732-7.0938 5.4143-2.8415-1.8633-2.457-4.8926-2.4199-10.363 0.12678-27.063 1.7322-35.578-2.8809 0.52986-6.2065 1.1973-14.711 1.9023-24.053-3.8742-4.5706-6.9798-9.0343 0.73438-9.7852 2.8579-39.878 5.968-95.753 4.1856-129.4-0.39905-7.0076-12.765-10.368-17.529-11.443-0.37756-0.0852-0.75976-0.16477-1.1426-0.24414-3.9768 2.478-8.025 2.9493-11.143-1.4942-2.6932-0.19334-5.467-0.28952-8.291-0.29882zm1455 3.0703c-17.024-0.15117-32.894 2.5196-41.965 8.3711-0.7987 5.9059-2.466 8.3942-7.9629 10.139-16.793 39.732-29.262 85.736-45.199 111.08 0 0-12.628-61.146-30.277-97.846-2.239 0.90843-4.4074 0.84457-7.0937-1.5762 0.6219-2.7996 1.7384-4.3063 3.207-5.9531-0.8055-1.4385-1.6232-2.8179-2.4453-4.1309-7.0777-11.3-16.738-17.366-21.5-17.041-13.302 0.90681-29.152 2.8497-42.182 8.832-4.4636 2.0494-7.9545 6.3151-2.9629 5.3008 14.968-3.0413 19.386 6.9397 21.498 9.4043 4.4598 21.343 2.2584 71.15-0.6523 110.51 3.8918 4.4757 3.9163 6.3911 4.2129 8.0449 0.2858 1.5901-2.2084 0.94747-4.7559-0.59961-1.2504 15.88-2.5702 29.55-3.5059 37.971-9.1457-0.36649-13.861 6.2462-13.861 9.6211 0 5.7053 8.2443 13.725 11.986 13.725 7.931 0 18.743-1.73 28.049-4.1856 1.4803-3.8349 5.2539-7.3338 11.035-3.5859 3.7353-1.5245 6.5582-3.111 7.7461-4.6484 8.8353-0.80471 10.839-6.8135 15.057-7.8555 4.4219-1.0922 5.7619-5.4157-0.9785-4.0488-8.8148 1.7876-18.803 2.8788-25.902 1.7129 1.8914-28.841 2.8368-110.13 0-135.19 11.442 16.885 19.439 36.082 25.305 55.039 6.1423 0.0104 8.7782 1.6979 3.9961 7.9629-0.4431 0.58068-0.836 1.0855-1.2246 1.5215 8.8079 31.915 12.094 61.874 16.254 77.326 1.3368 5.0148 4.397 2.1947 5.7344 0.18946 10.751-17.17 19.725-33.543 27.207-48.514-0.1248-0.0124-0.2255-0.0136-0.3535-0.0273-3.5685-10.705-0.8625-12.795 4.8926-9.2148 20.251-42.434 27.586-71.508 27.586-71.508 4.6811 33.862 1.7712 91.522-0.2168 120.84-23.005-3.0416-18.071 7.8106-17.285 11.605 1.2936 6.2375 7.8133 12.041 11.008 12.041 6.2886 0 24.939-0.19778 26.553-6.2773 5.0684-1.9471 13.273-6.1301 13.074-8.4531 3.5827-1.9963 8.774-2.6248 11.715-4.9199 6.3262-4.9379 3.0685-4.9937 1.4122-4.7559-12.268 1.7606-15.442 1.2659-21.852 0.625 0.8992-5.7827 2.1586-16.545 3.3965-29.979-2.0199-2.2865-3.6058-4.3564-3.3418-6.334 0.3281-2.4554 3.0642-4.8522 4.5644-8.2344 1.5899-19.943 2.9814-43.332 3.3711-65.121-2.7237-2.9769-4.6419-6.0756 0.1094-13.754 0-9e-3 3e-4 -0.0182 0-0.0273-0.051-14.396-0.6687-27.509-2.0937-37.643 2.4248-2.4016 3.7723-2.4951 7.3378-2.1465 8.0477 0.78687 12.736 13.791 6.7696 17.014-2.8279 1.5274 0.6751 1.7428 2.0918 1.1406 4.3536-1.8504 8.3412-2.063 8.7246-9.1582 4.6449-1.7752 2.0957-6.0828 0.789-11.932 4.7797-3.2189-9.765-15.293-17.07-15.357zm-1250.8 79.717c-10.08 0.23775-26.71 8.1979-32.424 12.15-1.3622 0.94232-2.6752 2.3683-0.38086 2.6621 7.6782 0.98329 15.957-4.462 17.096 8.5352 2.0761 23.704 2.3117 51.574 1.9297 75.287-9.3747 1.6896-20.357 5.0808-20.357 9.2949 0 8.8229 10.134 12.76 19.76 13.998-0.59794 17.666-1.332 29.652-1.332 29.652-12.142 1.5624-13.296 5.918-13.916 9.9473-0.66334 4.3109 1.6544 14.58 7.1211 14.703 8.8385 0.19949 34.289-0.40016 38.623-5.9785 7.2952-2.1246 18.155-5.1836 19.16-10.221 4.8442-0.98783 8.1756-1.898 10.709-2.8535 4.6984-1.7721 2.3163-3.7045 10.273-6.5762 2.6329-0.95018 5.723-5.7714-1.1133-3.6152-6.652 2.0981-15.153 2.719-24.055 2.9356-4.2758 4.6062-9.6824 5.9323-14.758 0.18945-3.9607 0.046-7.8591 0.10942-11.551 0.32618 0-3.3755 1.0378-14.906 2.2285-29.896 33.944-8.1786 74.389-42.091 74.389-74.172 0-21.102-12.482-38.598-41.148-41.285-7.585 4.541-13.868 4.1152-13.943-0.19141-5.3967 0.32186-11.226 1.0626-17.504 2.2832-0.75939-5.5347-3.9301-7.2908-8.8066-7.1758zm463.38 0c-8.7874-0.11759-23.592 3.83-30.061 7.9648 5.4675 1.215 13.698 3.1708 13.672 8.832-0.0184 4.0734-0.0335 8.0801-0.0547 12.096 2.6722 1.0849 4.8208 2.1594 5.4356 3.5606 0.70545 1.6086-0.61906 3.6704-5.5176 6.7949-0.0287 2.8463-0.0612 5.7045-0.10938 8.6152-14.304 0.96256-28.176 1.0524-42.67 2.0391 0.72147-8.0352 1.1672-15.885 1.0859-22.695-0.18383-15.412-3.7991-22.881-10.572-25.277-6.9857-2.4718-27.284 4.2298-35.795 10.465 10.291-0.6218 17.85-1.6519 18.318 3.5059 0.42621 4.6967 0.68152 9.9831 0.81641 15.656 1.7586-1.0814 3.4017-1.4837 4.5918-0.78907 3.8602 2.2532-0.40295 9.2504-4.5117 14.404-0.0924 11.438-0.55608 23.781-1.2226 35.959 1.7405 3.0794 3.1253 6.2178 2.6641 9.5937-0.38766 2.8376-2.0966 5.2189-3.75 7.584-0.32387 4.6382-0.65454 9.2075-1.0059 13.562-0.51912 6.4351-1.4009 14.512-3.0449 20.52-2.5171 9.198 1.5715 6.1324 4.7285 1.1953 2.2644-3.5412 1.2097-10.808 2.582-11.633 3.6986-2.2237 7.0823-1.7434 8.7246-9.457 5.2902-2.1726 9.6108-7.8924 10.166-12.584 0.65132-5.5041 1.9033-14.07 3.207-23.836 2.7297-0.11454 5.678-0.26911 8.6426-0.43555 0.40283-5.2838 1.6975-10.288 4.1856-10.438 3.0118-0.18131 2.6131 5.8581 2.1738 10.029 3.843-0.28698 7.4442-0.62538 10.248-1.0606 6.7829-1.0527 5.9494-2.5637 6.6582-4.8106 5.0263-0.98841 9.2701-2.4636 13.318-3.7226-0.47009 13.393-1.2832 28.125-2.7734 45.824-0.44687 5.3087-0.94174 9.4908-1.4668 15.193-0.7185 7.8002 3.8254 9.1931 6.0332-3.6426 0.36808-2.1396 1.4142-7.9485 5.709-10.002 5.4369-2.5996 4.7976-6.9436 5.6797-9.1582 3.852-0.0536 9.1679-2.6302 10.438-14.025 0.16612-1.4914 0.34541-3.2043 0.51562-4.7832-1.9088 5e-3 -3.8475-0.3412-5.8711-1.2774 1.2189-2.195 4.1849-6.6501 7.0664-10.41 2.7952-29.197 4.7917-64.867-1.9824-71.754-1.0652-1.0829-3.3228-1.5643-6.252-1.6035zm926.05 0c-10.08 0.23775-26.712 8.1979-32.426 12.15-1.3623 0.94232-1.0724 3.108 1.1972 2.6621 5.5956-1.0992 14.381-4.462 15.52 8.5352 0.9941 11.351 1.536 23.664 1.8203 36.012 2.6329 3.2778 4.4356 6.0704 2.3633 12.34-0.6659 2.0145-1.3774 3.2805-2.1192 3.9961 0.035 7.8742-0.02 15.613-0.1367 22.939-9.3714 1.6904-20.33 5.083-20.33 9.2949 0 8.831 10.126 12.764 19.76 13.998-0.5979 17.666-1.3574 29.652-1.3574 29.652-12.142 1.5624-13.296 5.918-13.916 9.9473-0.6634 4.3109 3.614 9.3296 13.916 14.703 3.91-0.32585 9.9548-0.68369 16.416-1.291-0.7601 0.34595-1.5214 0.69205-2.3496 1.0352 10.311 2.2914 23.816-0.42429 33.938-5.5527-1.1562-0.77076-2.224-1.4203-3.2344-1.9805 1.2917-0.99238 2.0315-2.1191 2.0059-3.4082 4.8202-1.9927 12.958-3.6735 14.133-6.9316 3.865-2.2417 4.4935-4.7419 11.062-7.5 2.5807-1.0836 10.531-6.5599 3.5058-5.1367-20.63 4.1792-33.789 2.478-50.363 3.4512 0-3.3562 0.53-14.648 1.0859-29.299 7.193-2.0696 14.606-5.2214 21.799-9.2148-1.0046-3.286-2.1232-7.4975-2.4746-9.0781 3.5767 1.5003 4.8789 3.7321 6.5508 6.6875 24.276-14.721 45.064-38.642 45.064-61.643 0-16.119-7.2956-30.149-23.512-37.074-12.213 2.3095-9.0915 0.93974-10.408-3.1797-10.302-2.0838-23.119-1.9701-38.705 1.0606-0.7594-5.5344-3.9282-7.2908-8.8046-7.1758zm-1066.4 1.0332c-4.4351-0.10426-6.0695 3.0552-8.9961 7.4199-2.6327 3.9265-8.2352 19.418-16.117 35.387 4.1984 4.7576-2.1454 9.632-6.8496 12.748-4.3032 7.3454-9.0599 14.136-14.215 19.162-4.7494 4.6305-12.761 8.5098-12.285 3.6133 0.75047-7.7218 1.4732-19.122 1.7656-39.6-5.237 1.332-3.2077-2.1661 0.0547-5.8711 0.0433-4.575 0.082-9.4193 0.082-14.867 0-7.4827-1.6875-17.312-6.6055-17.312-11.401 0-17.945 1.1434-37.045 9.9473-5.2022 2.3978-1.7915 3.0522 2.2559 2.0117 8.0004-2.0568 15.779-1.2501 15.791 2.5 0.0911 29.453-2.3848 51.617-4.1582 67.703 5.2955 3.4762 4.1232 9.1553-1.2773 12.449-0.27801 3.2409-0.46094 6.1361-0.46094 8.6152 0 10.261 8.4527 14.606 14.541 14.596 10.104-0.0199 21.607-9.4047 30.412-18.51-0.0161-2.9793 0.0936-5.9072 0.38086-8.7793 2.6382 1.4026 3.4171 2.3043 4.2676 3.7246 25.874-29.329 30.91-56.136 32.316-57.92 3.4148-4.3328 3.5371-1.9472 3.8047 5.709 0.73111 20.915-0.43361 36.48-2.8262 58.436-1.275 11.7-2.8003 20.595-5.2188 25.141-1.253 2.3548-2.3272 6.2831 3.5879 1.957 3.8346-2.8045 4.6167-10.1 7.3105-15.574 3.0016 1.7823 6.2602-6.6994 8.3164-10.465 3.0837-0.0485 7.2366-4.8616 8.1816-10.355 5.4097-31.45 4.1856-76.06 4.1856-76.699 0-9.5861-14.877-15.017-21.199-15.166zm1468.3 0c-4.4355-0.10426-6.0695 3.0552-8.9961 7.4199-0.724 1.0798-1.6928 3.1099-2.8535 5.707 1.2358 8.7878-2.4256 16.169-7.582 17.422-6.6903 15.057-15.838 33.535-26.744 44.168-4.7495 4.6305-12.761 8.5098-12.285 3.6133 0.9736-10.017 1.9023-26.043 1.9023-60.338 0-7.4827-1.6875-17.312-6.6055-17.312-11.401 0-17.945 1.1434-37.045 9.9473-5.2022 2.3978-1.7916 3.0522 2.2559 2.0117 8.0001-2.0568 15.779-1.2501 15.791 2.5 0.029 9.4495-0.2308 18.116-0.625 26.119 3.3706 3.5927 5.3989 7.8345 5.4082 9.459 0.023 3.9145-2.8461 3.3297-6.0332 1.3867-1.7321 24.584-4.6484 41.449-4.6484 51.803 0 10.261 8.4527 14.606 14.541 14.596 9.0195-0.0178 19.168-7.4914 27.506-15.574-0.8739-3.1282-1.4357-6.2345-0.9238-9.5938 0.295-1.9366 3.0557 1.8618 5.2461 5.1914 0.988-1.0518 1.9515-2.112 2.8535-3.127 26.224-29.506 31.282-56.588 32.695-58.381 3.4149-4.3328 3.5392-1.9472 3.8067 5.709 0.7311 20.915-0.4354 36.48-2.8282 58.436-1.2745 11.7-2.7982 20.595-5.2167 25.141-1.253 2.3548-2.329 6.2831 3.5859 1.957 3.8346-2.8045 4.6188-10.1 7.3125-15.574 3.0017 1.7823 6.2603-6.6994 8.3164-10.465 3.0837-0.0485 7.2367-4.8616 8.1816-10.355 0.7224-4.1986 1.3158-8.6498 1.8203-13.182-4.4746-3.2934-2.1883-7.9478 1.1954-13.154 1.8311-25.43 1.1696-49.891 1.1699-50.363 0-9.5861-14.879-15.017-21.201-15.166zm-1610.1 0.65234c-2.8694 0.05-4.8239 1.0394-4.7832 3.2891 0.17899 9.9055 0.0244 20.466-0.32617 30.902 1.3505 0.2996 2.3583 0.76443 3.5332 2.7188-0.98526 2.2168-1.9333 5.7245-3.9961 8.5059-0.0883 1.9307-0.1746 3.8935-0.27149 5.7891-15.547 7.1518-38.568 18.849-47.346 2.2031-2.8446-5.3944 4.0133-18.977 4.3476-36.828 0.32012-17.093-4.1843-18.141-18.617-13.834-4.5978 1.372-19.01 4.8948-22.232 6.4668-4.4908 2.1909-3.6477 3.1268-0.73438 2.9356 3.7339-0.24506 8.5934-0.75194 10.871 0.082 4.3658 1.5986 4.3223 5.6538 4.3223 8.4805 0 4.8408-0.0852 8.6138-0.24414 11.66 4.4018 4.6066 9.4098 11.642 0.16211 13.697-0.54038-1.25-0.97791-2.3677-1.332-3.4238-0.77252 3.7972-1.6764 5.9188-2.2012 11.904-1.3681 15.606 10.755 24.924 17.641 24.924 1.8823 0 4.1701-0.0515 6.6582-0.16406 1.4197-1.7992 3.8934-4.0412 7.2578-5.4356 0.18092 2.1712 2.5443 2.6658 0.89648 4.8652 13.878-1.2816 29.985-4.5091 31.826-11.633 2.1231-1.1298 6.3344-2.1978 6.4688-6.3594 0.59605-0.31182 1.2001-0.62206 1.7949-0.97852-1.4712 24.99-3.4258 44.547-3.4258 44.547-2.6954 12.863 1.8208 17.791 13.127 15.002 5.789-1.4282 22.179-5.1272 23.891-12.203 2.935-0.28753 6.9029-3.6931 8.7246-7.1484 0.59759-1.1335 8.0476-4.9852 9.4863-6.3594 1.3016-1.2431 1.1138-4.1182-6.9297-1.2773-10.238 3.616-25.107 7.8398-24.244 1.6035 0.60338-4.3617 2.5411-10.539 4.2129-21.445-4.3923-3.664-5.1646-8.4195-5.7637-11.115 2.8131 1.0586 4.7764 2.5541 6.6602 4.457 1.4198-12.07 2.3412-28.871 1.3594-53-0.28249-6.9424-13.46-12.956-20.793-12.828zm334.98 0.082c-10.329-0.0501-19.385 3.197-28.891 8.7246-4.2515 2.4725-1.6893 4.1145 2.6367 3.6406 5.9328-0.64992 11.973-1.2038 12.311 7.4473 0.61934 15.898 0.94987 35.649 0.16406 61.779 3.6549 7.7555 9.5904 22.419-0.51758 13.779-0.23482 5.6336-0.50252 11.469-0.8418 17.668-0.38843 7.0895-1.1558 12.237-1.6309 17.557-0.38652 4.3226 5.9027-0.0926 5.9531-2.8535 0.0521-2.8313 4.5616-3.8632 5.4902-10.816 3.4893 4.3987 6.2396-3.4741 7.9629-11.607 0.89391-4.2173 3.7354-7.6233 4.0234-9.9199 0.86851-6.9149 1.6136-13.299 2.2285-19.324 4.1092 6.0234 8.9293 13.751 14.133 20.955 2.6566 1.3248 5.91 2.7565 9.459 4.9746 1.0093 1.9236 1.1252 5.026 1.0039 7.7188 5.1949 5.2264 10.55 8.752 15.791 8.752 6.9964 0 24.964-7.8725 22.641-12.965 4.3636-4.1036 7.3414-9.8871 5.0019-11.145 2.5255-2.5515 4.9306-6.3559 7.4199-11.932 1.7008-3.8103 0.8192-6.5195-0.3261-4.7012-3.449 5.4754-21.91 20.248-28.539 20.248-5.5997 0-18.693-20.201-26.064-33.24 3.2811-3.0467 6.5813-7.0686 9.8652-11.441-1.6664-9.7049 1.2748-9.7953 4.9746-6.8496 9.8011-13.926 19.112-28.635 26.363-28.293 2.586 4.0357-1.0915 15.15-7.2285 15.438-3.387 0.15843-3.675 3.1245 0.053 2.8262 2.9767-0.23815 5.7401-1.0805 8.1816-2.3926 2.2393 2.065 5.4789-2.2405 6.0606-3.4785 0.5072-1.0798 1.9236-1.4114 2.7461-3.0703 2.5933-5.2318 3.65-8.9569 3.5879-10.654-0.3081-8.2718-7.288-13.508-15.791-13.508-18.238 0-17.983 1.8202-39.981 25.193-3.5508 3.7724-14.807 19.872-17.15 20.113 0.20038-3.5165 0.35939-6.9253 0.48828-10.273-0.0265 0.0365-0.0551 0.0732-0.082 0.10938-2.0614-11.336-9.8013-17.32 0.54492-20.766 0.0241-3.0823 0.0273-6.1638 0.0273-9.2949-1.3087-6.135-7.515-8.3764-12.068-8.3984zm991.5 0c-10.329 0-19.385 3.197-28.891 8.7246-4.2517 2.4725-1.6893 4.1145 2.6368 3.6406 5.9328-0.64992 12.312-1.2104 12.312 7.4473 0 10.527-0.5152 36.985-2.2031 64.172 1.8919 4.2412 3.9074 9.3909 3.9961 12.121 0.073 2.2342-1.1732 2.8186-4.8105-0.082-1.2959 17.083-3.1072 33.587-5.5996 45.662-0.9887 4.7903 5.5537-0.16435 7.9902-10.764 1.4417-0.37176 5.623 1.9782 8.8066-6.7402 2.3983 5.8e-4 5.6921-0.83701 6.3868-3.3164 1.0699-3.8188 5.0204-2.0611 5.4375-4.293 1.9041-10.192 2.9821-24.316 3.5859-39.355 3.9319 5.8359 8.4679 13.06 13.346 19.812 2.6601 1.3275 5.9284 2.751 9.4863 4.9746 1.0091 1.9236 1.1271 5.026 1.0059 7.7188 5.1965 5.2252 10.548 8.752 15.791 8.752 5.161 0 13.371-3.2788 17.992-7.0137 1.7738-1.4336 1.6573-3.129 2.4453-4.5918 1.103-2.0474 2.7299-3.8051 2.7734-5.4355 6.2668-5.3211 6.2826-7.4693 5.0547-8.9434 0.873-1.7474 3.2137-3.2297 4.0235-4.8379 1.8766-3.727-1.5628-3.4594-3.0723-1.9297-5.1882 5.258-15.522 13.129-22.15 13.129-5.2358 0-18.468-21.307-26.228-34.818 3.0427-2.9479 6.1176-6.6862 9.1601-10.734-1.6638-9.6904 1.2535-9.7816 4.9454-6.8496 9.8136-13.929 19.136-28.636 26.392-28.293 2.5859 4.0357-1.0933 15.15-7.2304 15.438-3.3871 0.15843-3.6734 3.1245 0.055 2.8262 11.008-0.88061 19.025-10.063 19.025-20.52 0-10.732-5.7392-12.584-14.242-12.584-18.238 0-26.68 13.998-48.678 37.371-3.9526 4.1993-6.6852 8.5959-9.2422 7.8809 0.049-5.0095 0.077-9.8328 0.082-14.514-2.5473-7.9241-6.6122-12.669-0.027-15.682-0.01-3.3975-0.025-7.1899-0.025-9.9746 0-5.9725-4.3938-8.3984-10.328-8.3984zm-1581.8 0.10743c-0.64727-8e-3 -1.2927-4e-3 -1.957 0.0273-5.7993 0.27626-11.112 1.215-15.953 2.7461-1.793 3.2905-3.981 6.2894-6.2793 7.0117-1.8728 0.58856-3.8397-0.356-6.0059-1.2773-18.497 11.933-27.071 35.175-27.207 62.322-0.0584 11.636 5.1707 21.977 13.371 29.816 1.8009-0.78799 4.2598-1.1973 7.502-1.1973 0.33827 2.5351 0.31502 4.9513 0.43555 7.4473 17.414 11.165 42.191 13.192 61.316-0.8418 3.6488-2.6776 4.2009-3.5373 4.4844-10.084 9.7275-4.1142 5.5702-7.8643 13.318-12.094 2.4828-1.3554 5.1566-7.8792 2.3633-6.1426-17.871 11.111-33.755 19.009-49.602 17.801-14.081-1.0734-27.269-15.159-26.336-24.732l26.281-7.4746c1.7815-5.3641 5.9814-5.3575 12.096-3.4512l15.273-4.3496c7.3396-2.0911 9.3725-11.815 9.2148-18.047-0.45991-18.175-12.251-37.227-32.316-37.48zm1931.7 0c-8.9235 0.63207-17.01 3.7154-25.44 8.6172-4.2517 2.4725-1.6891 4.1145 2.6367 3.6406 5.933-0.64992 11.975-1.2038 12.313 7.4473 0.4755 12.21 0.7571 26.776 0.5156 44.656 2.2032 1.7849 3.9816 4.4365 3.75 8.9961-0.1807 3.5621-1.0393 12.334-4.4844 18.727-0.2582 6.6002-0.5735 13.448-0.9785 20.848-0.3885 7.0895-1.1559 12.237-1.6309 17.557-0.3863 4.3226 5.9027-0.0926 5.9532-2.8535 0.052-2.8313 4.5616-3.8632 5.4902-10.816 3.4893 4.3987 6.2394-3.4741 7.9629-11.607 0.8937-4.2173 3.7353-7.6233 4.0234-9.9199 0.8697-6.925 1.6131-13.319 2.2285-19.352 4.1619 6.103 9.0676 13.937 14.35 21.227 4.2369-1.8264 6.6387-1.9962 7.7461-0.95117 1.4762 1.393 0.6894 4.9578-0.9238 9.7031 6.2449 7.202 12.817 12.449 19.217 12.449 6.996 0 24.964-7.8725 22.641-12.965 4.3636-4.1036 7.3395-9.8871 5-11.145 2.5254-2.5515 4.9309-6.3559 7.4199-11.932 1.7009-3.8103 0.8191-6.5195-0.3261-4.7012-3.4491 5.4754-20.17 20.248-26.799 20.248-5.156 0-19.552-20.022-27.613-33.43 3.854-3.6211 7.7636-8.5269 11.605-13.807-3.4985-3.1227-3.8112-7.3377 0.8692-8.5898 1.4899 0.39391 2.8117 0.98438 3.9961 1.6856 9.1309-13.094 17.741-26.005 24.543-25.684 2.586 4.0357-1.0934 15.15-7.2304 15.438-3.387 0.15843-3.6734 3.1245 0.055 2.8262 2.9768-0.23815 5.7384-1.0805 8.1796-2.3926 2.2396 2.065 5.4809-2.2405 6.0625-3.4785 0.5072-1.0798 1.9216-1.4114 2.7442-3.0703 2.5934-5.2318 3.6503-8.9569 3.5879-10.654-0.3075-8.2718-7.2881-13.508-15.791-13.508-18.238 0-26.68 13.998-48.678 37.371-3.5506 3.7724-6.116 7.692-8.4531 7.9356 0.8144-14.291 0.9785-26.895 0.9785-40.225 0-3.1122-1.6685-5.2608-4.1035-6.6055-1.1904 1.34-2.5637 2.3197-4.5938 2.0938-2.6576-0.29579-5.0156-1.9127-6.8222-3.7793zm-1153.5 0.67968c-1.352-0.0167-2.5441 0.45993-3.4785 1.5234-1.642-0.73848-4.6215-1.1457-9.5938-0.81641-48.235 3.1942-72.908 39.978-77.326 70.178 3.6431 3.102 2.9901 7.4784-0.707 10.572 0.5467 24.668 19.928 38.209 36.828 37.236 4.9258-0.28358 11.948-0.75422 20.195-6.1426-1.4747-4.9994 2.9209-7.7983 8.3438-6.9043 3.2351-3.2748 6.587-7.3989 10.029-12.584-0.134 1.2865-0.2733 2.6347-0.4082 3.8867-1.3209 12.249 1.8799 26.148 17.938 26.336 7.5624 0.0884 25.775-14.42 22.424-15.166 2.6494-2.7234 2.7939-5.9694 4.9473-8.6426 3.2578-4.0451 0.082-3.1093 3.3418-7.8555 1.177-1.7136 3.6211-5.1778 4.7305-6.9297 1.705-2.6928-0.794-3.3575-2.6094-1.2227-10.35 12.172-23.581 20.799-23.863 12.203-0.2048-6.244 0.1072-17.363 0.7324-29.924-4.3851 3.0958-8.1393 4.9294-5.5703-0.89844 1.133-2.5704 3.7708-5.1416 6.0059-7.2559 0.7474-12.859 1.7699-26.479 2.9355-37.834 0.1883-1.8286-0.046-3.7406-0.5976-5.5996-0.5337-3.0512-2.0866-5.8452-4.5118-8.125v-0.0273c-0.032-0.0304-0.077-0.0518-0.1093-0.082-2.9692-3.4745-6.6786-5.8888-9.6758-5.9258zm944.52 0.49024c-9.6442 0-18.5 2.463-26.227 6.8496-1.0055 7.6338-4.5633 7.6698-13.318 10.654-10.571 11.522-16.98 27.847-17.258 46.367-0.5328 35.464 28.93 51.504 46.529 51.504 7.9365 0 14.708-1.326 20.385-3.5879-0.1984-8.9038 3.8164-7.1496 7.6641-4.0215 9.7847-6.6692 14.594-16.882 14.787-27.18 0.1104-5.9038 0.9973-18.114-7.0137-17.611-2.1955-2.9167-3.5338-7.8999-7.7734-9.2148 11.403-7.7392 13.679-17.64 13.836-26.58-4.1616-3.0054-6.3901-7.0056-1.8769-11.008-3.3404-8.0434-11.736-16.172-29.734-16.172zm-339.26 3.7773c-2.5438 0-4.9932 0.17841-7.3379 0.49024-4.2334 3.6114-8.0631 6.3593-13.943 3.9668-24.131 11.103-33.755 40.375-33.947 58.627-0.2715 25.795 10.38 51.267 36.23 51.775 27.575 0.54257 65.121-21.526 65.121-57.484 0-2.8081-0.1079-5.6197-0.3535-8.3711-3.9297-4.7203-8.0989-11.137-3.5332-17.449-6.0578-18.153-19.494-31.555-42.236-31.555zm-612.29 3.6699c-0.3914 1.8147-0.104 4.2527 0.053 8.4258-0.5689 3.6571-1.1014 7.3266-1.6036 11.008-2.9224 11.643-6.3259 21.422-9.9199 29.652 0.06 1.8615 0.2012 3.5675 0.1094 4.7832-0.5325 7.0504-4.6374 9.326-8.7793 11.822-9.7364 15.466-19.357 21.683-24 23.43-8.3191 3.1296-15.834-8.9937-15.084-23.076 0.8208-15.436 10.028-30.814 22.098-42.971 0.067-6.2278 3.0126-10.736 10.572-9.2949 8.7853-6.7086 18.169-11.624 26.555-13.779zm-769.61 6.6035c4.3137-0.0189 10.92 1.0377 8.6426 18.863-0.42587 3.3328-3.9668 4.6465-3.9668 4.6465l-37.535 11.361c1.27-14.874 19.325-34.844 31.174-34.844 0.48946 0 1.0693-0.0246 1.6855-0.0273zm1722.1 0.87109c12.168 0 11.945 9.4771 11.768 13.697-0.497 11.827-16.092 14.317-44.654 23.43 1.6359-16.359 16.235-37.127 32.887-37.127zm-1612.2 6.0606c11.905 0 24.732 2.3429 24.732 18.672 0 6.2388-3.038 13.133-8.207 19.895-0.32029 4.2119-1.7113 7.9383-2.7734 10.328-2.6457 0.0684-3.8787-0.7236-4.9453-1.793-9.7099 9.2354-22.959 17.495-37.127 22.449 1.2759-20.34 2.1996-42.989 1.6035-62.648 6.5705-3.2416 21.21-6.9023 26.717-6.9023zm1389.4 0c11.905 0 24.734 2.3429 24.734 18.672 0 17.289-23.3 39.685-50.69 50.037 0.4571-20.073 0.5667-42.429-0.4629-61.941 6.7066-3.205 20.993-6.7676 26.418-6.7676zm-111.65 2.6641c15.474-0.30771 13.983 20.321 13.889 24.65-0.7776 29.394-24.141 45.199-35.822 45.199-14.992 0-15.251-13.177-13.725-29.299 0.1759-1.8572 0.4965-3.7817 0.9511-5.7344-4.8038-4.7177-6.7101-10.379-5.4902-10.791 4.0912-1.3818 6.652 0.62093 8.1797 2.5 5.6399-13.566 17.175-26.23 32.018-26.525zm334.67 37.941c5.2421 0.0878 11.307 3.2136 11.307 10.844 0 14.857-12.475 25.195-23.156 25.195-14.963 0-20.637-12.585-20.168-27.424 6.1291-2.7241 20.552-5.9729 28.621-8.207 1.0369-0.28705 2.1867-0.42846 3.3964-0.4082z"/>
 </g></svg>
